<define-tag pagetitle>DSA-4612-1 prosody-modules</define-tag>
<define-tag report_date>2020-1-31</define-tag>
<define-tag secrefs>CVE-2020-8086</define-tag>
<define-tag packages>prosody-modules</define-tag>
<define-tag isvulnerable>yes</define-tag>
<define-tag fixed>yes</define-tag>
<define-tag fixed-section>no</define-tag>

#use wml::debian::security



</dl>
