<define-tag pagetitle>DLA-2724-1 condor</define-tag>
<define-tag report_date>2021-8-01</define-tag>
<define-tag secrefs>CVE-2019-18823 Bug#963777</define-tag>
<define-tag packages>condor</define-tag>
<define-tag isvulnerable>yes</define-tag>
<define-tag fixed>yes</define-tag>
<define-tag fixed-section>no</define-tag>

#use wml::debian::security

