<define-tag pagetitle>DLA-2725-1 lrzip</define-tag>
<define-tag report_date>2021-8-01</define-tag>
<define-tag secrefs>CVE-2017-8844 CVE-2017-8846 CVE-2017-9928 CVE-2017-9929 CVE-2018-5650 CVE-2018-5747 CVE-2018-5786 CVE-2018-10685 CVE-2018-11496</define-tag>
<define-tag packages>lrzip</define-tag>
<define-tag isvulnerable>yes</define-tag>
<define-tag fixed>yes</define-tag>
<define-tag fixed-section>no</define-tag>

#use wml::debian::security

