<define-tag pagetitle>DLA-2764-1 tomcat8</define-tag>
<define-tag report_date>2021-9-23</define-tag>
<define-tag secrefs>CVE-2021-41079</define-tag>
<define-tag packages>tomcat8</define-tag>
<define-tag isvulnerable>yes</define-tag>
<define-tag fixed>yes</define-tag>
<define-tag fixed-section>no</define-tag>

#use wml::debian::security

