<define-tag pagetitle>DLA-1161-1 redis</define-tag>
<define-tag report_date>2017-11-5</define-tag>
<define-tag secrefs>CVE-2016-1051</define-tag>
<define-tag packages>redis</define-tag>
<define-tag isvulnerable>yes</define-tag>
<define-tag fixed>yes</define-tag>
<define-tag fixed-section>no</define-tag>

#use wml::debian::security

