<define-tag pagetitle>DLA-2474-1 musl</define-tag>
<define-tag report_date>2020-12-01</define-tag>
<define-tag secrefs>CVE-2020-28928 Bug#975365</define-tag>
<define-tag packages>musl</define-tag>
<define-tag isvulnerable>yes</define-tag>
<define-tag fixed>yes</define-tag>
<define-tag fixed-section>no</define-tag>

#use wml::debian::security

