<define-tag pagetitle>DLA-1237-1 plexus-utils2</define-tag>
<define-tag report_date>2018-1-9</define-tag>
<define-tag secrefs>CVE-2017-1000487</define-tag>
<define-tag packages>plexus-utils2</define-tag>
<define-tag isvulnerable>yes</define-tag>
<define-tag fixed>yes</define-tag>
<define-tag fixed-section>no</define-tag>

#use wml::debian::security

