<define-tag pagetitle>DSA-4566-1 qemu</define-tag>
<define-tag report_date>2019-11-12</define-tag>
<define-tag secrefs>Bug#944623</define-tag>
<define-tag packages>qemu</define-tag>
<define-tag isvulnerable>yes</define-tag>
<define-tag fixed>yes</define-tag>
<define-tag fixed-section>no</define-tag>

#use wml::debian::security



</dl>
