<define-tag pagetitle>DLA-1996-1 libapache2-mod-auth-openidc</define-tag>
<define-tag report_date>2019-11-18</define-tag>
<define-tag secrefs>CVE-2019-14857 Bug#942165</define-tag>
<define-tag packages>libapache2-mod-auth-openidc</define-tag>
<define-tag isvulnerable>yes</define-tag>
<define-tag fixed>yes</define-tag>
<define-tag fixed-section>no</define-tag>

#use wml::debian::security

