<define-tag pagetitle>DLA-539-1 qemu-kvm</define-tag>
<define-tag report_date>2016-7-1</define-tag>
<define-tag secrefs>CVE-2016-3710 CVE-2016-3712</define-tag>
<define-tag packages>qemu-kvm</define-tag>
<define-tag isvulnerable>yes</define-tag>
<define-tag fixed>yes</define-tag>
<define-tag fixed-section>no</define-tag>

#use wml::debian::security

